84:$Parameters: , 195, 50, 1, 7e-06, 0.1, 49790.0, 42.3
219:$Parameters: , 195, 50, 1, 1e-06, 0.2, 49791.0, 59.0
324:$Parameters: , 195, 50, 1, 3e-06, 0.3, 49792.0, 54.0
442:$Parameters: , 195, 35, 1, 2e-06, 0.4, 49793.0, 62.1
546:$Parameters: , 195, 10, 1, 3e-06, 0.5, 49794.0, 67.8
631:$Parameters: , 195, 70, 1, 4e-06, 0.6, 49795.0, 42.5
717:$Parameters: , 195, 60, 1, 5e-06, 0.7, 49796.0, 47.1
801:$Parameters: , 195, 25, 1, 8e-06, 0.8, 49797.0, 53.3
884:$Parameters: , 195, 30, 1, 1e-05, 0.9, 49798.0, 33.7
1012:$Parameters: , 195, 40, 1, 1e-06, 0.95, 49789.0, 54.8
