--filename snap3_training_dataset_michael.csv --D_in 195 --H 50 --D_out 1 --lr 0.000007 --beta1 0.97 --beta2 0.99 --M 0.1
--filename snap3_training_dataset_michael.csv --D_in 195 --H 50 --D_out 1 --lr 0.000001 --beta1 0.98 --beta2 0.99 --M 0.2
--filename snap3_training_dataset_michael.csv --D_in 195 --H 50 --D_out 1 --lr 0.000003 --beta1 0.95 --beta2 0.96 --M 0.3
--filename snap3_training_dataset_michael.csv --D_in 195 --H 35 --D_out 1 --lr 0.000002 --beta1 0.94 --beta2 0.97 --M 0.4
--filename snap3_training_dataset_michael.csv --D_in 195 --H 10 --D_out 1 --lr 0.000003 --beta1 0.94 --beta2 0.97 --M 0.5
--filename snap3_training_dataset_michael.csv --D_in 195 --H 70 --D_out 1 --lr 0.000004 --beta1 0.94 --beta2 0.97 --M 0.6
--filename snap3_training_dataset_michael.csv --D_in 195 --H 60 --D_out 1 --lr 0.000005 --beta1 0.94 --beta2 0.97 --M 0.7
--filename snap3_training_dataset_michael.csv --D_in 195 --H 25 --D_out 1 --lr 0.000008 --beta1 0.94 --beta2 0.97 --M 0.8
--filename snap3_training_dataset_michael.csv --D_in 195 --H 30 --D_out 1 --lr 0.00001 --beta1 0.93 --beta2 0.97 --M 0.9
--filename snap3_training_dataset_michael.csv --D_in 195 --H 40 --D_out 1 --lr 0.000001 --beta1 0.94 --beta2 0.97 --M 0.95